<svg viewBox="0 0 50 50" xmlns="http://www.w3.org/2000/svg">

  <g stroke="null" id="svg_89">
   <g transform="matrix(0.13955063680220467,0,0,0.13955063680220467,-0.5629045278889818,-4.87538007568661) " fill-rule="evenodd" fill="none" id="svg_83">
    <g stroke="null" id="svg_84">
     <g stroke="null" id="svg_88">
      <path stroke="null" fill="#D43157" id="svg_86" d="m359.557859,237.601241c12.191099,-85.197442 -45.430164,-175.766351 -141.771843,-189.459991c-101.37657,-14.383082 -177.859971,63.194491 -188.915573,140.43506c-4.921344,34.479779 5.796191,61.527484 2.092925,87.507585c-3.83746,26.708129 -15.6492,39.249271 -22.578306,49.987061c-4.877472,7.509249 -4.381983,19.476714 2.882611,28.472893c7.814277,9.701055 17.432445,11.424658 27.747394,7.763931c10.443983,-3.745621 24.397681,-9.842545 48.55536,-7.411493c32.751319,3.300571 44.387572,19.667083 82.764758,25.115727c99.126224,14.066659 177.287062,-58.97295 189.222674,-142.410773"/>
      <path stroke="null" fill="#FEFEFE" id="svg_85" d="m330.70413,167.251996c5.127797,1.551243 8.087829,7.0642 6.575555,12.340484c-1.2284,4.18038 -5.055538,7.118223 -9.331713,7.118223c-0.91872,0 -1.855504,-0.144062 -2.756159,-0.416752c-2.567769,-0.776908 -5.259411,-1.170506 -7.969117,-1.170506c-15.527909,0 -28.162883,12.91416 -28.162883,28.76359l0,38.186812c0,5.469224 -4.356176,9.912004 -9.716233,9.912004c-5.365219,0 -9.723975,-4.44278 -9.723975,-9.912004l0,-38.186812c0,-26.813604 21.349906,-48.621041 47.603091,-48.621041c4.575533,0 9.114936,0.668861 13.481434,1.986002zm-226.451718,-1.98343c26.353831,0 47.801803,21.79972 47.801803,48.610752l0,38.189384c0,5.476941 -4.374241,9.919721 -9.752363,9.919721c-5.401348,0 -9.778169,-4.44278 -9.778169,-9.919721l0,-38.189384c0,-15.849431 -12.681426,-28.763591 -28.271271,-28.763591c-15.592425,0 -28.273851,12.91416 -28.273851,28.763591l0,38.189384c0,5.476941 -4.394886,9.919721 -9.788493,9.919721c-5.365218,0 -9.749781,-4.44278 -9.749781,-9.919721l0,-38.189384c0,-26.811032 21.458294,-48.610752 47.812125,-48.610752zm152.181503,73.29995c0,-7.769076 3.169066,-15.388945 3.169066,-25.689403c0,-23.096281 -19.158915,-49.00435 -49.445691,-49.00435c-28.782245,0 -49.448273,24.148451 -49.448273,49.603753c0,24.925358 19.840213,49.575454 49.448273,49.575454c11.491736,0 13.336917,-3.012447 23.073795,-3.012447c14.160152,0 18.973107,6.763213 25.032527,1.059888c6.05942,-5.713616 -1.829697,-8.044339 -1.829697,-22.532895m-20.36667,1.422616c-2.727771,2.495366 -16.281465,3.807362 -25.2364,3.807362c-8.983322,0 -30.436455,-7.100216 -30.436455,-29.993266c0,-22.890477 20.02344,-30.325123 30.258389,-30.325123c19.099559,0 30.237743,16.13241 30.237743,29.98812c0,13.845421 -2.092925,24.048122 -4.823277,26.522907"/>
     </g>
    </g>
   </g>
  </g>
</svg>